{
  "project_info": {
    "project_number": "230202289989",
    "firebase_url": "https://paises-3c6dc.firebaseio.com",
    "project_id": "paises-3c6dc",
    "storage_bucket": "paises-3c6dc.appspot.com"
  },
  "client": [
    {
      "client_info": {
        "mobilesdk_app_id": "1:230202289989:android:d8fa63afb6780394aa582c",
        "android_client_info": {
          "package_name": "com.example.lospaises"
        }
      },
      "oauth_client": [
        {
          "client_id": "230202289989-itu9hpk2f2nr3ns6jk5n59tfrj989jfb.apps.googleusercontent.com",
          "client_type": 3
        }
      ],
      "api_key": [
        {
          "current_key": "AIzaSyCzslSROjFrEWSwBIy6pMME85eAOBFl2RI"
        }
      ],
      "services": {
        "appinvite_service": {
          "other_platform_oauth_client": [
            {
              "client_id": "230202289989-itu9hpk2f2nr3ns6jk5n59tfrj989jfb.apps.googleusercontent.com",
              "client_type": 3
            }
          ]
        }
      }
    }
  ],
  "configuration_version": "1"
}